verilog/cache_sim.vcd
$date
	Sun Dec 28 15:06:39 2025
$end
$version
	Icarus Verilog
$end
$timescale
	1ps
$end
$scope module tb_cache $end
$var wire 256 ! mem_req_wdata [255:0] $end
$var wire 1 " mem_req_valid $end
$var wire 1 # mem_req_rw $end
$var wire 15 $ mem_req_addr [14:0] $end
$var wire 1 % cpu_resp_valid $end
$var wire 32 & cpu_resp_rdata [31:0] $end
$var wire 1 ' cpu_resp_hit $end
$var wire 1 ( cpu_req_ready $end
$var parameter 32 ) MEM_LATENCY $end
$var reg 1 * clk $end
$var reg 20 + cpu_req_addr [19:0] $end
$var reg 1 , cpu_req_rw $end
$var reg 2 - cpu_req_size [1:0] $end
$var reg 1 . cpu_req_valid $end
$var reg 32 / cpu_req_wdata [31:0] $end
$var reg 1 0 mem_busy $end
$var reg 7 1 mem_delay [6:0] $end
$var reg 15 2 mem_pending_addr [14:0] $end
$var reg 1 3 mem_pending_rw $end
$var reg 256 4 mem_pending_wdata [255:0] $end
$var reg 256 5 mem_resp_rdata [255:0] $end
$var reg 1 6 mem_resp_valid $end
$var reg 1 7 rst_n $end
$var integer 32 8 block [31:0] $end
$var integer 32 9 cycle_count [31:0] $end
$var integer 32 : hit_count [31:0] $end
$var integer 32 ; i [31:0] $end
$var integer 32 < mi [31:0] $end
$var integer 32 = miss_count [31:0] $end
$var integer 32 > req_start [31:0] $end
$var integer 32 ? test_addr [31:0] $end
$var integer 32 @ total_hit_latency [31:0] $end
$var integer 32 A total_miss_latency [31:0] $end
$var integer 32 B wb_count [31:0] $end
$scope function size_str $end
$var reg 2 C sz [1:0] $end
$upscope $end
$scope module dut $end
$var wire 1 * clk $end
$var wire 20 D cpu_req_addr [19:0] $end
$var wire 1 , cpu_req_rw $end
$var wire 2 E cpu_req_size [1:0] $end
$var wire 1 . cpu_req_valid $end
$var wire 32 F cpu_req_wdata [31:0] $end
$var wire 256 G mem_resp_rdata [255:0] $end
$var wire 1 6 mem_resp_valid $end
$var wire 1 H mshr_conflict $end
$var wire 1 7 rst_n $end
$var wire 3 I addr_word [2:0] $end
$var wire 12 J addr_tag [11:0] $end
$var wire 3 K addr_set [2:0] $end
$var wire 15 L addr_block [14:0] $end
$var parameter 32 M ASSOC $end
$var parameter 32 N LINE_BITS $end
$var parameter 32 O NUM_LINES $end
$var parameter 32 P NUM_SETS $end
$var parameter 32 Q SET_BITS $end
$var parameter 32 R TAG_BITS $end
$var reg 1 ( cpu_req_ready $end
$var reg 1 ' cpu_resp_hit $end
$var reg 32 S cpu_resp_rdata [31:0] $end
$var reg 1 % cpu_resp_valid $end
$var reg 15 T evict_block [14:0] $end
$var reg 12 U evict_tag [11:0] $end
$var reg 1 V hit $end
$var reg 16 W lfsr [15:0] $end
$var reg 256 X line_rd [255:0] $end
$var reg 256 Y line_wr [255:0] $end
$var reg 15 Z mem_req_addr [14:0] $end
$var reg 1 # mem_req_rw $end
$var reg 1 " mem_req_valid $end
$var reg 256 [ mem_req_wdata [255:0] $end
$var reg 15 \ mshr_block [14:0] $end
$var reg 1 ] mshr_rw $end
$var reg 3 ^ mshr_set [2:0] $end
$var reg 2 _ mshr_size [1:0] $end
$var reg 12 ` mshr_tag [11:0] $end
$var reg 1 a mshr_valid $end
$var reg 6 b mshr_victim [5:0] $end
$var reg 1 c mshr_wb_pending $end
$var reg 32 d mshr_wdata [31:0] $end
$var reg 3 e mshr_word [2:0] $end
$var reg 1 f process_hit $end
$var integer 32 g base [31:0] $end
$var integer 32 h bpos [31:0] $end
$var integer 32 i hit_idx [31:0] $end
$var integer 32 j i [31:0] $end
$var integer 32 k idx [31:0] $end
$var integer 32 l way [31:0] $end
$upscope $end
$scope task cpu_access $end
$var reg 20 m addr [19:0] $end
$var reg 1 n rw $end
$var reg 2 o size [1:0] $end
$var reg 32 p wdata [31:0] $end
$var integer 32 q latency [31:0] $end
$upscope $end
$upscope $end
$enddefinitions $end
$comment Show the parameter values. $end
$dumpall
b1100 R
b11 Q
b1000 P
b100000 O
b100000000 N
b100 M
b110010 )
$end
#0
$dumpvars
bx q
bx p
bx o
xn
bx m
bx l
bx k
b100000 j
bx i
bx h
bx g
0f
bx e
bx d
0c
bx b
0a
bx `
bx _
bx ^
x]
bx \
b0 [
b0 Z
bx Y
bx X
b1010110011100001 W
xV
bx U
bx T
b0 S
b0 L
b0 K
b0 J
b0 I
0H
bx G
b0 F
b10 E
b0 D
bx C
b0 B
b0 A
b0 @
bx ?
bx >
b0 =
b1000000000000000 <
bx ;
b0 :
b0 9
bx 8
07
06
bx 5
bx 4
x3
bx 2
b0 1
00
b0 /
0.
b10 -
0,
b0 +
0*
1(
0'
b0 &
0%
b0 $
0#
0"
b0 !
$end
#5000
b100000 j
b1 9
1*
#10000
0*
#15000
b100000 j
b10 9
1*
#20000
0*
#25000
b100000 j
b11 9
1*
#30000
0*
#35000
b100000 j
b100 9
1*
#40000
0*
#45000
b100000 j
b101 9
1*
#50000
0*
#55000
b100000 j
b110 9
1*
#60000
0*
#65000
b100000 j
b111 9
1*
#70000
0*
#75000
b100000 j
b1000 9
1*
#80000
0*
#85000
b100000 j
b1001 9
1*
#90000
0*
#95000
b101100111000011 W
17
b1010 9
1*
#100000
0*
#105000
b1011001110000111 W
b1011 9
1*
#110000
0*
#115000
b110011100001111 W
b1100 9
1*
#120000
0*
#125000
b1100111000011110 W
b1101 9
1*
#130000
0*
#135000
b1001110000111100 W
b1110 9
1*
#140000
0*
#145000
b11100001111001 W
b1111 9
b0 p
b100000000 m
b10 o
0n
1*
#150000
0*
#155000
b1 J
b1000 L
b111000011110010 W
b100000000 +
b100000000 D
1.
b10000 9
b1111 >
1*
#160000
0*
#165000
1H
b1000 $
b1000 Z
1"
b10 b
b1 `
b0 d
b10 _
0]
b0 e
b0 ^
b1000 \
1a
b1110000111100100 W
0.
b10 k
b100 l
b0 g
b0 i
0V
b10001 9
1*
#170000
0*
#175000
0"
b1100001111001000 W
b110010 1
b0 4
03
b1000 2
10
b10010 9
1*
#180000
0*
#185000
b110001 1
b1000011110010001 W
b10011 9
1*
#190000
0*
#195000
b111100100010 W
b110000 1
b10100 9
1*
#200000
0*
#205000
b101111 1
b1111001000101 W
b10101 9
1*
#210000
0*
#215000
b11110010001010 W
b101110 1
b10110 9
1*
#220000
0*
#225000
b101101 1
b111100100010101 W
b10111 9
1*
#230000
0*
#235000
b1111001000101010 W
b101100 1
b11000 9
1*
#240000
0*
#245000
b101011 1
b1110010001010101 W
b11001 9
1*
#250000
0*
#255000
b1100100010101011 W
b101010 1
b11010 9
1*
#260000
0*
#265000
b101001 1
b1001000101010111 W
b11011 9
1*
#270000
0*
#275000
b10001010101110 W
b101000 1
b11100 9
1*
#280000
0*
#285000
b100111 1
b100010101011101 W
b11101 9
1*
#290000
0*
#295000
b1000101010111011 W
b100110 1
b11110 9
1*
#300000
0*
#305000
b100101 1
b1010101110111 W
b11111 9
1*
#310000
0*
#315000
b10101011101110 W
b100100 1
b100000 9
1*
#320000
0*
#325000
b100011 1
b101010111011101 W
b100001 9
1*
#330000
0*
#335000
b1010101110111010 W
b100010 1
b100010 9
1*
#340000
0*
#345000
b100001 1
b101011101110100 W
b100011 9
1*
#350000
0*
#355000
b1010111011101000 W
b100000 1
b100100 9
1*
#360000
0*
#365000
b11111 1
b101110111010001 W
b100101 9
1*
#370000
0*
#375000
b1011101110100010 W
b11110 1
b100110 9
1*
#380000
0*
#385000
b11101 1
b111011101000101 W
b100111 9
1*
#390000
0*
#395000
b1110111010001011 W
b11100 1
b101000 9
1*
#400000
0*
#405000
b11011 1
b1101110100010111 W
b101001 9
1*
#410000
0*
#415000
b1011101000101111 W
b11010 1
b101010 9
1*
#420000
0*
#425000
b11001 1
b111010001011111 W
b101011 9
1*
#430000
0*
#435000
b1110100010111111 W
b11000 1
b101100 9
1*
#440000
0*
#445000
b10111 1
b1101000101111110 W
b101101 9
1*
#450000
0*
#455000
b1010001011111100 W
b10110 1
b101110 9
1*
#460000
0*
#465000
b10101 1
b100010111111000 W
b101111 9
1*
#470000
0*
#475000
b1000101111110001 W
b10100 1
b110000 9
1*
#480000
0*
#485000
b10011 1
b1011111100011 W
b110001 9
1*
#490000
0*
#495000
b10111111000110 W
b10010 1
b110010 9
1*
#500000
0*
#505000
b10001 1
b101111110001100 W
b110011 9
1*
#510000
0*
#515000
b1011111100011000 W
b10000 1
b110100 9
1*
#520000
0*
#525000
b1111 1
b111111000110000 W
b110101 9
1*
#530000
0*
#535000
b1111110001100001 W
b1110 1
b110110 9
1*
#540000
0*
#545000
b1101 1
b1111100011000010 W
b110111 9
1*
#550000
0*
#555000
b1111000110000101 W
b1100 1
b111000 9
1*
#560000
0*
#565000
b1011 1
b1110001100001011 W
b111001 9
1*
#570000
0*
#575000
b1100011000010110 W
b1010 1
b111010 9
1*
#580000
0*
#585000
b1001 1
b1000110000101100 W
b111011 9
1*
#590000
0*
#595000
b1100001011000 W
b1000 1
b111100 9
1*
#600000
0*
#605000
b111 1
b11000010110001 W
b111101 9
1*
#610000
0*
#615000
b110000101100010 W
b110 1
b111110 9
1*
#620000
0*
#625000
b101 1
b1100001011000101 W
b111111 9
1*
#630000
0*
#635000
b1000010110001011 W
b100 1
b1000000 9
1*
#640000
0*
#645000
b11 1
b101100010110 W
b1000001 9
1*
#650000
0*
#655000
b1011000101100 W
b10 1
b1000010 9
1*
#660000
0*
#665000
b1 1
b10110001011000 W
b1000011 9
1*
#670000
0*
#675000
b101100010110000 W
b0 1
b1000100 9
1*
#680000
0*
#685000
b100000000000000000000000000000001000000000000000000000000000000010000000000000000000000000000000100000000000000000000000000000001000000000000000000000000000000010000000000000000000000000000000100000000000000000000000000000001000 5
b100000000000000000000000000000001000000000000000000000000000000010000000000000000000000000000000100000000000000000000000000000001000000000000000000000000000000010000000000000000000000000000000100000000000000000000000000000001000 G
16
00
b1011000101100001 W
b1000101 9
1*
#690000
0*
#695000
0H
0a
1%
b1000 &
b1000 S
b110001011000011 W
06
b1000110 9
1*
#700000
0*
#705000
0%
b1100010110000111 W
b111000 A
b1 =
b111000 q
b1000111 9
1*
#710000
0*
#715000
b1000101100001110 W
1.
b1001000 9
b1000111 >
1*
#720000
0*
#725000
1'
1%
b1011000011101 W
0.
b10 i
1V
b11 k
b100 l
b1001001 9
1*
#730000
0*
#735000
0%
b10110000111010 W
b100000100 m
b1001010 9
b10 @
b1 :
b10 q
1*
#740000
0*
#745000
b1 I
b101100001110100 W
b100000100 +
b100000100 D
1.
b1001011 9
b1001010 >
1*
#750000
0*
#755000
1%
b1011000011101001 W
0.
b11 k
b100 l
b10 i
1V
b1001100 9
1*
#760000
0*
#765000
0%
b110000111010011 W
b1000000000 m
b1001101 9
b100 @
b10 :
1*
#770000
0*
#775000
b10 J
b10000 L
b0 I
b1100001110100111 W
b1000000000 +
b1000000000 D
1.
b1001110 9
b1001101 >
1*
#780000
0*
#785000
1H
b10000 $
b10000 Z
1"
b11 b
b10 `
b10000 \
1a
b1000011101001111 W
0.
b11 k
b100 l
b0 i
0V
b1001111 9
1*
#790000
0*
#795000
0"
b111010011110 W
b110010 1
b10000 2
10
b1010000 9
1*
#800000
0*
#805000
b110001 1
b1110100111101 W
b1010001 9
1*
#810000
0*
#815000
b11101001111010 W
b110000 1
b1010010 9
1*
#820000
0*
#825000
b101111 1
b111010011110100 W
b1010011 9
1*
#830000
0*
#835000
b1110100111101001 W
b101110 1
b1010100 9
1*
#840000
0*
#845000
b101101 1
b1101001111010010 W
b1010101 9
1*
#850000
0*
#855000
b1010011110100100 W
b101100 1
b1010110 9
1*
#860000
0*
#865000
b101011 1
b100111101001001 W
b1010111 9
1*
#870000
0*
#875000
b1001111010010011 W
b101010 1
b1011000 9
1*
#880000
0*
#885000
b101001 1
b11110100100111 W
b1011001 9
1*
#890000
0*
#895000
b111101001001111 W
b101000 1
b1011010 9
1*
#900000
0*
#905000
b100111 1
b1111010010011110 W
b1011011 9
1*
#910000
0*
#915000
b1110100100111100 W
b100110 1
b1011100 9
1*
#920000
0*
#925000
b100101 1
b1101001001111000 W
b1011101 9
1*
#930000
0*
#935000
b1010010011110000 W
b100100 1
b1011110 9
1*
#940000
0*
#945000
b100011 1
b100100111100001 W
b1011111 9
1*
#950000
0*
#955000
b1001001111000010 W
b100010 1
b1100000 9
1*
#960000
0*
#965000
b100001 1
b10011110000100 W
b1100001 9
1*
#970000
0*
#975000
b100111100001000 W
b100000 1
b1100010 9
1*
#980000
0*
#985000
b11111 1
b1001111000010001 W
b1100011 9
1*
#990000
0*
#995000
b11110000100011 W
b11110 1
b1100100 9
1*
#1000000
0*
#1005000
b11101 1
b111100001000111 W
b1100101 9
1*
#1010000
0*
#1015000
b1111000010001110 W
b11100 1
b1100110 9
1*
#1020000
0*
#1025000
b11011 1
b1110000100011101 W
b1100111 9
1*
#1030000
0*
#1035000
b1100001000111010 W
b11010 1
b1101000 9
1*
#1040000
0*
#1045000
b11001 1
b1000010001110101 W
b1101001 9
1*
#1050000
0*
#1055000
b100011101010 W
b11000 1
b1101010 9
1*
#1060000
0*
#1065000
b10111 1
b1000111010100 W
b1101011 9
1*
#1070000
0*
#1075000
b10001110101001 W
b10110 1
b1101100 9
1*
#1080000
0*
#1085000
b10101 1
b100011101010011 W
b1101101 9
1*
#1090000
0*
#1095000
b1000111010100111 W
b10100 1
b1101110 9
1*
#1100000
0*
#1105000
b10011 1
b1110101001110 W
b1101111 9
1*
#1110000
0*
#1115000
b11101010011100 W
b10010 1
b1110000 9
1*
#1120000
0*
#1125000
b10001 1
b111010100111000 W
b1110001 9
1*
#1130000
0*
#1135000
b1110101001110001 W
b10000 1
b1110010 9
1*
#1140000
0*
#1145000
b1111 1
b1101010011100010 W
b1110011 9
1*
#1150000
0*
#1155000
b1010100111000101 W
b1110 1
b1110100 9
1*
#1160000
0*
#1165000
b1101 1
b101001110001010 W
b1110101 9
1*
#1170000
0*
#1175000
b1010011100010101 W
b1100 1
b1110110 9
1*
#1180000
0*
#1185000
b1011 1
b100111000101011 W
b1110111 9
1*
#1190000
0*
#1195000
b1001110001010111 W
b1010 1
b1111000 9
1*
#1200000
0*
#1205000
b1001 1
b11100010101111 W
b1111001 9
1*
#1210000
0*
#1215000
b111000101011110 W
b1000 1
b1111010 9
1*
#1220000
0*
#1225000
b111 1
b1110001010111100 W
b1111011 9
1*
#1230000
0*
#1235000
b1100010101111000 W
b110 1
b1111100 9
1*
#1240000
0*
#1245000
b101 1
b1000101011110000 W
b1111101 9
1*
#1250000
0*
#1255000
b1010111100001 W
b100 1
b1111110 9
1*
#1260000
0*
#1265000
b11 1
b10101111000010 W
b1111111 9
1*
#1270000
0*
#1275000
b101011110000101 W
b10 1
b10000000 9
1*
#1280000
0*
#1285000
b1 1
b1010111100001010 W
b10000001 9
1*
#1290000
0*
#1295000
b101111000010101 W
b0 1
b10000010 9
1*
#1300000
0*
#1305000
b1000000000000000000000000000000010000000000000000000000000000000100000000000000000000000000000001000000000000000000000000000000010000000000000000000000000000000100000000000000000000000000000001000000000000000000000000000000010000 5
b1000000000000000000000000000000010000000000000000000000000000000100000000000000000000000000000001000000000000000000000000000000010000000000000000000000000000000100000000000000000000000000000001000000000000000000000000000000010000 G
16
00
b1011110000101010 W
b10000011 9
1*
#1310000
0*
#1315000
0H
0a
0'
1%
b10000 &
b10000 S
b111100001010100 W
06
b10000100 9
1*
#1320000
0*
#1325000
0%
b1111000010101000 W
b10101011 p
b0 o
1n
b1110000 A
b10 =
b111000 q
b10000101 9
1*
#1330000
0*
#1335000
b1110000101010001 W
b10101011 /
b10101011 F
b0 -
b0 E
1,
1.
b10000110 9
b10000101 >
1*
#1340000
0*
#1345000
b10101011 &
b10101011 S
1'
1%
b1100001010100010 W
0.
b0 h
b1000000000000000000000000000000010000000000000000000000000000000100000000000000000000000000000001000000000000000000000000000000010000000000000000000000000000000100000000000000000000000000000001000000000000000000000000000010101011 X
b11 i
1V
b11 k
b100 l
b10000111 9
1*
#1350000
0*
#1355000
0%
b1000010101000101 W
b1100110111101111 p
b1000000010 m
b1 o
b10001000 9
b110 @
b11 :
b10 q
1*
#1360000
0*
#1365000
b101010001010 W
b1100110111101111 /
b1100110111101111 F
b1000000010 +
b1000000010 D
b1 -
b1 E
1.
b10001001 9
b10001000 >
1*
#1370000
0*
#1375000
b1100110111101111 &
b1100110111101111 S
1%
b1010100010100 W
0.
b1000000000000000000000000000000010000000000000000000000000000000100000000000000000000000000000001000000000000000000000000000000010000000000000000000000000000000100000000000000000000000000000001000000000000000000001100110111101111 X
b11 k
b100 l
b11 i
1V
b10001010 9
1*
#1380000
0*
#1385000
0%
b10101000101000 W
b10010001101000101011001111000 p
b1000000100 m
b10 o
b10001011 9
b1000 @
b100 :
1*
#1390000
0*
#1395000
b1 I
b101010001010001 W
b10010001101000101011001111000 /
b10010001101000101011001111000 F
b1000000100 +
b1000000100 D
b10 -
b10 E
1.
b10001100 9
b10001011 >
1*
#1400000
0*
#1405000
b10010001101000101011001111000 &
b10010001101000101011001111000 S
1%
b1010100010100010 W
0.
b1000000000000000000000000000000010000000000000000000000000000000100000000000000000000000000000001000000000000000000000000000000010000000000000000000000000000000100000001001000110100010101100111100000000000000000001100110111101111 X
b100 h
b11 k
b100 l
b11 i
1V
b10001101 9
1*
#1410000
0*
#1415000
0%
b101000101000100 W
b0 p
0n
b10001110 9
b1010 @
b101 :
1*
#1420000
0*
#1425000
b1010001010001001 W
b0 /
b0 F
0,
1.
b10001111 9
b10001110 >
1*
#1430000
0*
#1435000
1%
b100010100010010 W
0.
b11 k
b100 l
b11 i
1V
b10010000 9
1*
#1440000
0*
#1445000
0%
b1000101000100101 W
b0 m
b0 ?
b0 ;
b0 =
b10010001 9
b1100 @
b0 :
1*
#1450000
0*
#1455000
b0 J
b0 L
b0 I
b1010001001011 W
b0 +
b0 D
1.
b10010010 9
b10010001 >
1*
#1460000
0*
#1465000
1H
1c
b1000000000000000000000000000000010000000000000000000000000000000100000000000000000000000000000001000000000000000000000000000000010000000000000000000000000000000100000001001000110100010101100111100000000000000000001100110111101111 !
b1000000000000000000000000000000010000000000000000000000000000000100000000000000000000000000000001000000000000000000000000000000010000000000000000000000000000000100000001001000110100010101100111100000000000000000001100110111101111 [
b1000000 $
b1000000 Z
1#
1"
b0 `
b0 \
1a
b10100010010110 W
0.
b1000000 T
b10 U
b11 k
b100 l
b0 i
0V
b10010011 9
1*
#1470000
0*
#1475000
b0 $
b0 Z
0#
0c
1"
b101000100101101 W
b110010 1
b1000000000000000000000000000000010000000000000000000000000000000100000000000000000000000000000001000000000000000000000000000000010000000000000000000000000000000100000001001000110100010101100111100000000000000000001100110111101111 4
13
b1000000 2
10
b10010100 9
1*
#1480000
0*
#1485000
b110001 1
0"
b1010001001011011 W
b10010101 9
1*
#1490000
0*
#1495000
b100010010110110 W
b110000 1
b10010110 9
1*
#1500000
0*
#1505000
b101111 1
b1000100101101101 W
b10010111 9
1*
#1510000
0*
#1515000
b1001011011011 W
b101110 1
b10011000 9
1*
#1520000
0*
#1525000
b101101 1
b10010110110111 W
b10011001 9
1*
#1530000
0*
#1535000
b100101101101110 W
b101100 1
b10011010 9
1*
#1540000
0*
#1545000
b101011 1
b1001011011011100 W
b10011011 9
1*
#1550000
0*
#1555000
b10110110111001 W
b101010 1
b10011100 9
1*
#1560000
0*
#1565000
b101001 1
b101101101110010 W
b10011101 9
1*
#1570000
0*
#1575000
b1011011011100101 W
b101000 1
b10011110 9
1*
#1580000
0*
#1585000
b100111 1
b110110111001010 W
b10011111 9
1*
#1590000
0*
#1595000
b1101101110010100 W
b100110 1
b10100000 9
1*
#1600000
0*
#1605000
b100101 1
b1011011100101000 W
b10100001 9
1*
#1610000
0*
#1615000
b110111001010000 W
b100100 1
b10100010 9
1*
#1620000
0*
#1625000
b100011 1
b1101110010100000 W
b10100011 9
1*
#1630000
0*
#1635000
b1011100101000001 W
b100010 1
b10100100 9
1*
#1640000
0*
#1645000
b100001 1
b111001010000011 W
b10100101 9
1*
#1650000
0*
#1655000
b1110010100000110 W
b100000 1
b10100110 9
1*
#1660000
0*
#1665000
b11111 1
b1100101000001101 W
b10100111 9
1*
#1670000
0*
#1675000
b1001010000011011 W
b11110 1
b10101000 9
1*
#1680000
0*
#1685000
b11101 1
b10100000110111 W
b10101001 9
1*
#1690000
0*
#1695000
b101000001101111 W
b11100 1
b10101010 9
1*
#1700000
0*
#1705000
b11011 1
b1010000011011111 W
b10101011 9
1*
#1710000
0*
#1715000
b100000110111110 W
b11010 1
b10101100 9
1*
#1720000
0*
#1725000
b11001 1
b1000001101111100 W
b10101101 9
1*
#1730000
0*
#1735000
b11011111001 W
b11000 1
b10101110 9
1*
#1740000
0*
#1745000
b10111 1
b110111110011 W
b10101111 9
1*
#1750000
0*
#1755000
b1101111100111 W
b10110 1
b10110000 9
1*
#1760000
0*
#1765000
b10101 1
b11011111001111 W
b10110001 9
1*
#1770000
0*
#1775000
b110111110011111 W
b10100 1
b10110010 9
1*
#1780000
0*
#1785000
b10011 1
b1101111100111110 W
b10110011 9
1*
#1790000
0*
#1795000
b1011111001111101 W
b10010 1
b10110100 9
1*
#1800000
0*
#1805000
b10001 1
b111110011111010 W
b10110101 9
1*
#1810000
0*
#1815000
b1111100111110101 W
b10000 1
b10110110 9
1*
#1820000
0*
#1825000
b1111 1
b1111001111101011 W
b10110111 9
1*
#1830000
0*
#1835000
b1110011111010111 W
b1110 1
b10111000 9
1*
#1840000
0*
#1845000
b1101 1
b1100111110101111 W
b10111001 9
1*
#1850000
0*
#1855000
b1001111101011110 W
b1100 1
b10111010 9
1*
#1860000
0*
#1865000
b1011 1
b11111010111101 W
b10111011 9
1*
#1870000
0*
#1875000
b111110101111011 W
b1010 1
b10111100 9
1*
#1880000
0*
#1885000
b1001 1
b1111101011110111 W
b10111101 9
1*
#1890000
0*
#1895000
b1111010111101111 W
b1000 1
b10111110 9
1*
#1900000
0*
#1905000
b111 1
b1110101111011110 W
b10111111 9
1*
#1910000
0*
#1915000
b1101011110111100 W
b110 1
b11000000 9
1*
#1920000
0*
#1925000
b101 1
b1010111101111001 W
b11000001 9
1*
#1930000
0*
#1935000
b101111011110011 W
b100 1
b11000010 9
1*
#1940000
0*
#1945000
b11 1
b1011110111100110 W
b11000011 9
1*
#1950000
0*
#1955000
b111101111001100 W
b10 1
b11000100 9
1*
#1960000
0*
#1965000
b1 1
b1111011110011000 W
b11000101 9
1*
#1970000
0*
#1975000
b1110111100110000 W
b0 1
b11000110 9
1*
#1980000
0*
#1985000
16
00
b1101111001100001 W
b11000111 9
1*
#1990000
0*
#1995000
0H
0a
0'
1%
b10000 &
b10000 S
b1011110011000011 W
06
b11001000 9
1*
#2000000
0*
#2005000
0%
b111100110000110 W
b100000000 m
b100000000 ?
b1 ;
b10101000 A
b1 =
b111000 q
b11001001 9
1*
#2010000
0*
#2015000
b1 J
b1000 L
b1111001100001100 W
b100000000 +
b100000000 D
1.
b11001010 9
b11001001 >
1*
#2020000
0*
#2025000
b1000 &
b1000 S
1'
1%
b1110011000011001 W
0.
b10 i
1V
b11 k
b100 l
b11001011 9
1*
#2030000
0*
#2035000
0%
b1100110000110011 W
b1000000000 m
b1000000000 ?
b10 ;
b11001100 9
b1110 @
b1 :
b10 q
1*
#2040000
0*
#2045000
b10 J
b10000 L
b1001100001100110 W
b1000000000 +
b1000000000 D
1.
b11001101 9
b11001100 >
1*
#2050000
0*
#2055000
1H
b10000 $
b10000 Z
1"
b10 b
b10 `
b10000 \
1a
b11000011001100 W
0.
b10 k
b100 l
b0 i
0V
b11001110 9
1*
#2060000
0*
#2065000
b110010 1
03
b10000 2
10
0"
b110000110011000 W
b11001111 9
1*
#2070000
0*
#2075000
b1100001100110001 W
b110001 1
b11010000 9
1*
#2080000
0*
#2085000
b110000 1
b1000011001100011 W
b11010001 9
1*
#2090000
0*
#2095000
b110011000110 W
b101111 1
b11010010 9
1*
#2100000
0*
#2105000
b101110 1
b1100110001101 W
b11010011 9
1*
#2110000
0*
#2115000
b11001100011011 W
b101101 1
b11010100 9
1*
#2120000
0*
#2125000
b101100 1
b110011000110110 W
b11010101 9
1*
#2130000
0*
#2135000
b1100110001101100 W
b101011 1
b11010110 9
1*
#2140000
0*
#2145000
b101010 1
b1001100011011000 W
b11010111 9
1*
#2150000
0*
#2155000
b11000110110000 W
b101001 1
b11011000 9
1*
#2160000
0*
#2165000
b101000 1
b110001101100000 W
b11011001 9
1*
#2170000
0*
#2175000
b1100011011000001 W
b100111 1
b11011010 9
1*
#2180000
0*
#2185000
b100110 1
b1000110110000010 W
b11011011 9
1*
#2190000
0*
#2195000
b1101100000100 W
b100101 1
b11011100 9
1*
#2200000
0*
#2205000
b100100 1
b11011000001001 W
b11011101 9
1*
#2210000
0*
#2215000
b110110000010011 W
b100011 1
b11011110 9
1*
#2220000
0*
#2225000
b100010 1
b1101100000100110 W
b11011111 9
1*
#2230000
0*
#2235000
b1011000001001100 W
b100001 1
b11100000 9
1*
#2240000
0*
#2245000
b100000 1
b110000010011001 W
b11100001 9
1*
#2250000
0*
#2255000
b1100000100110011 W
b11111 1
b11100010 9
1*
#2260000
0*
#2265000
b11110 1
b1000001001100111 W
b11100011 9
1*
#2270000
0*
#2275000
b10011001111 W
b11101 1
b11100100 9
1*
#2280000
0*
#2285000
b11100 1
b100110011111 W
b11100101 9
1*
#2290000
0*
#2295000
b1001100111110 W
b11011 1
b11100110 9
1*
#2300000
0*
#2305000
b11010 1
b10011001111101 W
b11100111 9
1*
#2310000
0*
#2315000
b100110011111010 W
b11001 1
b11101000 9
1*
#2320000
0*
#2325000
b11000 1
b1001100111110101 W
b11101001 9
1*
#2330000
0*
#2335000
b11001111101010 W
b10111 1
b11101010 9
1*
#2340000
0*
#2345000
b10110 1
b110011111010100 W
b11101011 9
1*
#2350000
0*
#2355000
b1100111110101000 W
b10101 1
b11101100 9
1*
#2360000
0*
#2365000
b10100 1
b1001111101010000 W
b11101101 9
1*
#2370000
0*
#2375000
b11111010100001 W
b10011 1
b11101110 9
1*
#2380000
0*
#2385000
b10010 1
b111110101000011 W
b11101111 9
1*
#2390000
0*
#2395000
b1111101010000111 W
b10001 1
b11110000 9
1*
#2400000
0*
#2405000
b10000 1
b1111010100001111 W
b11110001 9
1*
#2410000
0*
#2415000
b1110101000011110 W
b1111 1
b11110010 9
1*
#2420000
0*
#2425000
b1110 1
b1101010000111100 W
b11110011 9
1*
#2430000
0*
#2435000
b1010100001111001 W
b1101 1
b11110100 9
1*
#2440000
0*
#2445000
b1100 1
b101000011110010 W
b11110101 9
1*
#2450000
0*
#2455000
b1010000111100101 W
b1011 1
b11110110 9
1*
#2460000
0*
#2465000
b1010 1
b100001111001010 W
b11110111 9
1*
#2470000
0*
#2475000
b1000011110010100 W
b1001 1
b11111000 9
1*
#2480000
0*
#2485000
b1000 1
b111100101000 W
b11111001 9
1*
#2490000
0*
#2495000
b1111001010001 W
b111 1
b11111010 9
1*
#2500000
0*
#2505000
b110 1
b11110010100010 W
b11111011 9
1*
#2510000
0*
#2515000
b111100101000101 W
b101 1
b11111100 9
1*
#2520000
0*
#2525000
b100 1
b1111001010001010 W
b11111101 9
1*
#2530000
0*
#2535000
b1110010100010101 W
b11 1
b11111110 9
1*
#2540000
0*
#2545000
b10 1
b1100101000101011 W
b11111111 9
1*
#2550000
0*
#2555000
b1001010001010111 W
b1 1
b100000000 9
1*
#2560000
0*
#2565000
b0 1
b10100010101111 W
b100000001 9
1*
#2570000
0*
#2575000
b101000101011111 W
16
00
b100000010 9
1*
#2580000
0*
#2585000
0H
06
0a
0'
1%
b10000 &
b10000 S
b1010001010111111 W
b100000011 9
1*
#2590000
0*
#2595000
0%
b100010101111110 W
b1100000000 m
b1100000000 ?
b11 ;
b11100000 A
b10 =
b111000 q
b100000100 9
1*
#2600000
0*
#2605000
b11 J
b11000 L
b1000101011111101 W
b1100000000 +
b1100000000 D
1.
b100000101 9
b100000100 >
1*
#2610000
0*
#2615000
1H
b11000 $
b11000 Z
1"
b1 b
b11 `
b11000 \
1a
b1010111111011 W
0.
b1 k
b100 l
b100000110 9
1*
#2620000
0*
#2625000
b110010 1
b11000 2
10
0"
b10101111110110 W
b100000111 9
1*
#2630000
0*
#2635000
b101011111101101 W
b110001 1
b100001000 9
1*
#2640000
0*
#2645000
b110000 1
b1010111111011010 W
b100001001 9
1*
#2650000
0*
#2655000
b101111110110101 W
b101111 1
b100001010 9
1*
#2660000
0*
#2665000
b101110 1
b1011111101101010 W
b100001011 9
1*
#2670000
0*
#2675000
b111111011010100 W
b101101 1
b100001100 9
1*
#2680000
0*
#2685000
b101100 1
b1111110110101001 W
b100001101 9
1*
#2690000
0*
#2695000
b1111101101010010 W
b101011 1
b100001110 9
1*
#2700000
0*
#2705000
b101010 1
b1111011010100101 W
b100001111 9
1*
#2710000
0*
#2715000
b1110110101001010 W
b101001 1
b100010000 9
1*
#2720000
0*
#2725000
b101000 1
b1101101010010101 W
b100010001 9
1*
#2730000
0*
#2735000
b1011010100101010 W
b100111 1
b100010010 9
1*
#2740000
0*
#2745000
b100110 1
b110101001010100 W
b100010011 9
1*
#2750000
0*
#2755000
b1101010010101001 W
b100101 1
b100010100 9
1*
#2760000
0*
#2765000
b100100 1
b1010100101010011 W
b100010101 9
1*
#2770000
0*
#2775000
b101001010100110 W
b100011 1
b100010110 9
1*
#2780000
0*
#2785000
b100010 1
b1010010101001101 W
b100010111 9
1*
#2790000
0*
#2795000
b100101010011011 W
b100001 1
b100011000 9
1*
#2800000
0*
#2805000
b100000 1
b1001010100110110 W
b100011001 9
1*
#2810000
0*
#2815000
b10101001101101 W
b11111 1
b100011010 9
1*
#2820000
0*
