simulation/cache_sim.vcd
$date
	Sun Dec 28 18:20:22 2025
$end
$version
	Icarus Verilog
$end
$timescale
	1ps
$end
$scope module tb_cache $end
$var wire 256 ! mem_req_wdata [255:0] $end
$var wire 1 " mem_req_valid $end
$var wire 1 # mem_req_rw $end
$var wire 15 $ mem_req_addr [14:0] $end
$var wire 1 % cpu_resp_valid $end
$var wire 32 & cpu_resp_rdata [31:0] $end
$var wire 1 ' cpu_resp_hit $end
$var wire 1 ( cpu_req_ready $end
$var parameter 32 ) MEM_LATENCY $end
$var reg 1 * clk $end
$var reg 20 + cpu_req_addr [19:0] $end
$var reg 1 , cpu_req_rw $end
$var reg 2 - cpu_req_size [1:0] $end
$var reg 1 . cpu_req_valid $end
$var reg 32 / cpu_req_wdata [31:0] $end
$var reg 1 0 mem_busy $end
$var reg 7 1 mem_delay [6:0] $end
$var reg 15 2 mem_pending_addr [14:0] $end
$var reg 1 3 mem_pending_rw $end
$var reg 256 4 mem_pending_wdata [255:0] $end
$var reg 256 5 mem_resp_rdata [255:0] $end
$var reg 1 6 mem_resp_valid $end
$var reg 1 7 rst_n $end
$var integer 32 8 block [31:0] $end
$var integer 32 9 cycle_count [31:0] $end
$var integer 32 : hit_count [31:0] $end
$var integer 32 ; i [31:0] $end
$var integer 32 < mi [31:0] $end
$var integer 32 = miss_count [31:0] $end
$var integer 32 > req_start [31:0] $end
$var integer 32 ? test_addr [31:0] $end
$var integer 32 @ total_hit_latency [31:0] $end
$var integer 32 A total_miss_latency [31:0] $end
$var integer 32 B wb_count [31:0] $end
$scope function size_str $end
$var reg 2 C sz [1:0] $end
$upscope $end
$scope module dut $end
$var wire 1 * clk $end
$var wire 20 D cpu_req_addr [19:0] $end
$var wire 1 , cpu_req_rw $end
$var wire 2 E cpu_req_size [1:0] $end
$var wire 1 . cpu_req_valid $end
$var wire 32 F cpu_req_wdata [31:0] $end
$var wire 256 G mem_resp_rdata [255:0] $end
$var wire 1 6 mem_resp_valid $end
$var wire 1 7 rst_n $end
$var wire 3 H addr_word [2:0] $end
$var wire 12 I addr_tag [11:0] $end
$var wire 3 J addr_set [2:0] $end
$var wire 15 K addr_block [14:0] $end
$var parameter 32 L ASSOC $end
$var parameter 32 M LINE_BITS $end
$var parameter 32 N MSHR_BITS $end
$var parameter 32 O NUM_LINES $end
$var parameter 32 P NUM_MSHR $end
$var parameter 32 Q NUM_SETS $end
$var parameter 32 R SET_BITS $end
$var parameter 32 S TAG_BITS $end
$var reg 1 ( cpu_req_ready $end
$var reg 1 ' cpu_resp_hit $end
$var reg 32 T cpu_resp_rdata [31:0] $end
$var reg 1 % cpu_resp_valid $end
$var reg 15 U evict_block [14:0] $end
$var reg 12 V evict_tag [11:0] $end
$var reg 1 W found_conflict $end
$var reg 1 X found_free $end
$var reg 1 Y hit $end
$var reg 16 Z lfsr [15:0] $end
$var reg 128 [ line_rd [127:0] $end
$var reg 128 \ line_wr [127:0] $end
$var reg 15 ] mem_req_addr [14:0] $end
$var reg 1 # mem_req_rw $end
$var reg 1 " mem_req_valid $end
$var reg 256 ^ mem_req_wdata [255:0] $end
$var reg 2 _ mshr_active_idx [1:0] $end
$var reg 1 ` mshr_conflict $end
$var reg 2 a mshr_free_idx [1:0] $end
$var reg 1 b mshr_has_free $end
$var integer 32 c base [31:0] $end
$var integer 32 d bpos [31:0] $end
$var integer 32 e hit_idx [31:0] $end
$var integer 32 f i [31:0] $end
$var integer 32 g idx [31:0] $end
$var integer 32 h way [31:0] $end
$upscope $end
$scope task cpu_access $end
$var reg 20 i addr [19:0] $end
$var reg 1 j rw $end
$var reg 2 k size [1:0] $end
$var reg 32 l wdata [31:0] $end
$var integer 32 m latency [31:0] $end
$upscope $end
$upscope $end
$enddefinitions $end
$comment Show the parameter values. $end
$dumpall
b1100 S
b11 R
b1000 Q
b100 P
b100000 O
b10 N
b10000000 M
b100 L
b110010 )
$end
#0
$dumpvars
bx m
bx l
bx k
xj
bx i
bx h
bx g
b100 f
bx e
bx d
bx c
1b
b0 a
0`
bx _
b0 ^
b0 ]
bx \
bx [
b1010110011100001 Z
xY
1X
0W
bx V
bx U
b0 T
b0 K
b0 J
b0 I
b0 H
bx G
b0 F
b10 E
b0 D
bx C
b0 B
b0 A
b0 @
bx ?
bx >
b0 =
b1000000000000000 <
bx ;
b0 :
b0 9
bx 8
07
06
bx 5
bx 4
x3
bx 2
b0 1
00
b0 /
0.
b10 -
0,
b0 +
0*
1(
0'
b0 &
0%
b0 $
0#
0"
b0 !
$end
#5000
b100 f
b1 9
1*
#10000
0*
#15000
b100 f
b10 9
1*
#20000
0*
#25000
b100 f
b11 9
1*
#30000
0*
#35000
b100 f
b100 9
1*
#40000
0*
#45000
b100 f
b101 9
1*
#50000
0*
#55000
b100 f
b110 9
1*
#60000
0*
#65000
b100 f
b111 9
1*
#70000
0*
#75000
b100 f
b1000 9
1*
#80000
0*
#85000
b100 f
b1001 9
1*
#90000
0*
#95000
b101100111000011 Z
b100 f
17
b1010 9
1*
#100000
0*
#105000
b1011001110000111 Z
b100 f
b1011 9
1*
#110000
0*
#115000
b110011100001111 Z
b100 f
b1100 9
1*
#120000
0*
#125000
b1100111000011110 Z
b100 f
b1101 9
1*
#130000
0*
#135000
b1001110000111100 Z
b100 f
b1110 9
1*
#140000
0*
#145000
b11100001111001 Z
b100 f
b1111 9
b0 l
b100000000 i
b10 k
0j
1*
#150000
0*
#155000
1X
b1 I
b1000 K
b111000011110010 Z
b100000000 +
b100000000 D
1.
b100 f
b10000 9
b1111 >
1*
#160000
0*
#165000
1`
1W
b1 a
1X
b1110000111100100 Z
0.
b10 g
b100 h
b0 c
b0 e
0Y
b100 f
b10001 9
1*
#170000
0*
#175000
b0 _
b1000 $
b1000 ]
1"
b1100001111001000 Z
b100 f
b10010 9
1*
#180000
0*
#185000
b110010 1
b0 4
03
b1000 2
10
0"
b1000011110010001 Z
b100 f
b10011 9
1*
#190000
0*
#195000
b111100100010 Z
b110001 1
b100 f
b10100 9
1*
#200000
0*
#205000
b110000 1
b1111001000101 Z
b100 f
b10101 9
1*
#210000
0*
#215000
b11110010001010 Z
b101111 1
b100 f
b10110 9
1*
#220000
0*
#225000
b101110 1
b111100100010101 Z
b100 f
b10111 9
1*
#230000
0*
#235000
b1111001000101010 Z
b101101 1
b100 f
b11000 9
1*
#240000
0*
#245000
b101100 1
b1110010001010101 Z
b100 f
b11001 9
1*
#250000
0*
#255000
b1100100010101011 Z
b101011 1
b100 f
b11010 9
1*
#260000
0*
#265000
b101010 1
b1001000101010111 Z
b100 f
b11011 9
1*
#270000
0*
#275000
b10001010101110 Z
b101001 1
b100 f
b11100 9
1*
#280000
0*
#285000
b101000 1
b100010101011101 Z
b100 f
b11101 9
1*
#290000
0*
#295000
b1000101010111011 Z
b100111 1
b100 f
b11110 9
1*
#300000
0*
#305000
b100110 1
b1010101110111 Z
b100 f
b11111 9
1*
#310000
0*
#315000
b10101011101110 Z
b100101 1
b100 f
b100000 9
1*
#320000
0*
#325000
b100100 1
b101010111011101 Z
b100 f
b100001 9
1*
#330000
0*
#335000
b1010101110111010 Z
b100011 1
b100 f
b100010 9
1*
#340000
0*
#345000
b100010 1
b101011101110100 Z
b100 f
b100011 9
1*
#350000
0*
#355000
b1010111011101000 Z
b100001 1
b100 f
b100100 9
1*
#360000
0*
#365000
b100000 1
b101110111010001 Z
b100 f
b100101 9
1*
#370000
0*
#375000
b1011101110100010 Z
b11111 1
b100 f
b100110 9
1*
#380000
0*
#385000
b11110 1
b111011101000101 Z
b100 f
b100111 9
1*
#390000
0*
#395000
b1110111010001011 Z
b11101 1
b100 f
b101000 9
1*
#400000
0*
#405000
b11100 1
b1101110100010111 Z
b100 f
b101001 9
1*
#410000
0*
#415000
b1011101000101111 Z
b11011 1
b100 f
b101010 9
1*
#420000
0*
#425000
b11010 1
b111010001011111 Z
b100 f
b101011 9
1*
#430000
0*
#435000
b1110100010111111 Z
b11001 1
b100 f
b101100 9
1*
#440000
0*
#445000
b11000 1
b1101000101111110 Z
b100 f
b101101 9
1*
#450000
0*
#455000
b1010001011111100 Z
b10111 1
b100 f
b101110 9
1*
#460000
0*
#465000
b10110 1
b100010111111000 Z
b100 f
b101111 9
1*
#470000
0*
#475000
b1000101111110001 Z
b10101 1
b100 f
b110000 9
1*
#480000
0*
#485000
b10100 1
b1011111100011 Z
b100 f
b110001 9
1*
#490000
0*
#495000
b10111111000110 Z
b10011 1
b100 f
b110010 9
1*
#500000
0*
#505000
b10010 1
b101111110001100 Z
b100 f
b110011 9
1*
#510000
0*
#515000
b1011111100011000 Z
b10001 1
b100 f
b110100 9
1*
#520000
0*
#525000
b10000 1
b111111000110000 Z
b100 f
b110101 9
1*
#530000
0*
#535000
b1111110001100001 Z
b1111 1
b100 f
b110110 9
1*
#540000
0*
#545000
b1110 1
b1111100011000010 Z
b100 f
b110111 9
1*
#550000
0*
#555000
b1111000110000101 Z
b1101 1
b100 f
b111000 9
1*
#560000
0*
#565000
b1100 1
b1110001100001011 Z
b100 f
b111001 9
1*
#570000
0*
#575000
b1100011000010110 Z
b1011 1
b100 f
b111010 9
1*
#580000
0*
#585000
b1010 1
b1000110000101100 Z
b100 f
b111011 9
1*
#590000
0*
#595000
b1100001011000 Z
b1001 1
b100 f
b111100 9
1*
#600000
0*
#605000
b1000 1
b11000010110001 Z
b100 f
b111101 9
1*
#610000
0*
#615000
b110000101100010 Z
b111 1
b100 f
b111110 9
1*
#620000
0*
#625000
b110 1
b1100001011000101 Z
b100 f
b111111 9
1*
#630000
0*
#635000
b1000010110001011 Z
b101 1
b100 f
b1000000 9
1*
#640000
0*
#645000
b100 1
b101100010110 Z
b100 f
b1000001 9
1*
#650000
0*
#655000
b1011000101100 Z
b11 1
b100 f
b1000010 9
1*
#660000
0*
#665000
b10 1
b10110001011000 Z
b100 f
b1000011 9
1*
#670000
0*
#675000
b101100010110000 Z
b1 1
b100 f
b1000100 9
1*
#680000
0*
#685000
b0 1
b1011000101100001 Z
b100 f
b1000101 9
1*
#690000
0*
#695000
b110001011000011 Z
b100000000000000000000000000000001000000000000000000000000000000010000000000000000000000000000000100000000000000000000000000000001000000000000000000000000000000010000000000000000000000000000000100000000000000000000000000000001000 5
b100000000000000000000000000000001000000000000000000000000000000010000000000000000000000000000000100000000000000000000000000000001000000000000000000000000000000010000000000000000000000000000000100000000000000000000000000000001000 G
16
00
b100 f
b1000110 9
1*
#700000
0*
#705000
0`
0W
b0 a
1X
06
1%
b1000 &
b1000 T
b1100010110000111 Z
b100 f
b1000111 9
1*
#710000
0*
#715000
0%
b1000101100001110 Z
b100 f
b1001000 9
b111000 A
b1 =
b111000 m
1*
#720000
0*
#725000
b1011000011101 Z
1.
b100 f
b1001001 9
b1001000 >
1*
#730000
0*
#735000
1'
1%
b10110000111010 Z
0.
b10 e
1Y
b11 g
b100 h
b100 f
b1001010 9
1*
#740000
0*
#745000
0%
b101100001110100 Z
b100 f
b100000100 i
b1001011 9
b10 @
b1 :
b10 m
1*
#750000
0*
#755000
b1 H
b1011000011101001 Z
b100000100 +
b100000100 D
1.
b100 f
b1001100 9
b1001011 >
1*
#760000
0*
#765000
1%
b110000111010011 Z
0.
b11 g
b100 h
b10 e
1Y
b100 f
b1001101 9
1*
#770000
0*
#775000
0%
b1100001110100111 Z
b100 f
b1000000000 i
b1001110 9
b100 @
b10 :
1*
#780000
0*
#785000
1X
b10 I
b10000 K
b0 H
b1000011101001111 Z
b1000000000 +
b1000000000 D
1.
b100 f
b1001111 9
b1001110 >
1*
#790000
0*
#795000
1`
1W
b1 a
1X
b111010011110 Z
0.
b11 g
b100 h
b0 e
0Y
b100 f
b1010000 9
1*
#800000
0*
#805000
b10000 $
b10000 ]
1"
b1110100111101 Z
b100 f
b1010001 9
1*
#810000
0*
#815000
0"
b11101001111010 Z
b110010 1
b10000 2
10
b100 f
b1010010 9
1*
#820000
0*
#825000
b110001 1
b111010011110100 Z
b100 f
b1010011 9
1*
#830000
0*
#835000
b1110100111101001 Z
b110000 1
b100 f
b1010100 9
1*
#840000
0*
#845000
b101111 1
b1101001111010010 Z
b100 f
b1010101 9
1*
#850000
0*
#855000
b1010011110100100 Z
b101110 1
b100 f
b1010110 9
1*
#860000
0*
#865000
b101101 1
b100111101001001 Z
b100 f
b1010111 9
1*
#870000
0*
#875000
b1001111010010011 Z
b101100 1
b100 f
b1011000 9
1*
#880000
0*
#885000
b101011 1
b11110100100111 Z
b100 f
b1011001 9
1*
#890000
0*
#895000
b111101001001111 Z
b101010 1
b100 f
b1011010 9
1*
#900000
0*
#905000
b101001 1
b1111010010011110 Z
b100 f
b1011011 9
1*
#910000
0*
#915000
b1110100100111100 Z
b101000 1
b100 f
b1011100 9
1*
#920000
0*
#925000
b100111 1
b1101001001111000 Z
b100 f
b1011101 9
1*
#930000
0*
#935000
b1010010011110000 Z
b100110 1
b100 f
b1011110 9
1*
#940000
0*
#945000
b100101 1
b100100111100001 Z
b100 f
b1011111 9
1*
#950000
0*
#955000
b1001001111000010 Z
b100100 1
b100 f
b1100000 9
1*
#960000
0*
#965000
b100011 1
b10011110000100 Z
b100 f
b1100001 9
1*
#970000
0*
#975000
b100111100001000 Z
b100010 1
b100 f
b1100010 9
1*
#980000
0*
#985000
b100001 1
b1001111000010001 Z
b100 f
b1100011 9
1*
#990000
0*
#995000
b11110000100011 Z
b100000 1
b100 f
b1100100 9
1*
#1000000
0*
#1005000
b11111 1
b111100001000111 Z
b100 f
b1100101 9
1*
#1010000
0*
#1015000
b1111000010001110 Z
b11110 1
b100 f
b1100110 9
1*
#1020000
0*
#1025000
b11101 1
b1110000100011101 Z
b100 f
b1100111 9
1*
#1030000
0*
#1035000
b1100001000111010 Z
b11100 1
b100 f
b1101000 9
1*
#1040000
0*
#1045000
b11011 1
b1000010001110101 Z
b100 f
b1101001 9
1*
#1050000
0*
#1055000
b100011101010 Z
b11010 1
b100 f
b1101010 9
1*
#1060000
0*
#1065000
b11001 1
b1000111010100 Z
b100 f
b1101011 9
1*
#1070000
0*
#1075000
b10001110101001 Z
b11000 1
b100 f
b1101100 9
1*
#1080000
0*
#1085000
b10111 1
b100011101010011 Z
b100 f
b1101101 9
1*
#1090000
0*
#1095000
b1000111010100111 Z
b10110 1
b100 f
b1101110 9
1*
#1100000
0*
#1105000
b10101 1
b1110101001110 Z
b100 f
b1101111 9
1*
#1110000
0*
#1115000
b11101010011100 Z
b10100 1
b100 f
b1110000 9
1*
#1120000
0*
#1125000
b10011 1
b111010100111000 Z
b100 f
b1110001 9
1*
#1130000
0*
#1135000
b1110101001110001 Z
b10010 1
b100 f
b1110010 9
1*
#1140000
0*
#1145000
b10001 1
b1101010011100010 Z
b100 f
b1110011 9
1*
#1150000
0*
#1155000
b1010100111000101 Z
b10000 1
b100 f
b1110100 9
1*
#1160000
0*
#1165000
b1111 1
b101001110001010 Z
b100 f
b1110101 9
1*
#1170000
0*
#1175000
b1010011100010101 Z
b1110 1
b100 f
b1110110 9
1*
#1180000
0*
#1185000
b1101 1
b100111000101011 Z
b100 f
b1110111 9
1*
#1190000
0*
#1195000
b1001110001010111 Z
b1100 1
b100 f
b1111000 9
1*
#1200000
0*
#1205000
b1011 1
b11100010101111 Z
b100 f
b1111001 9
1*
#1210000
0*
#1215000
b111000101011110 Z
b1010 1
b100 f
b1111010 9
1*
#1220000
0*
#1225000
b1001 1
b1110001010111100 Z
b100 f
b1111011 9
1*
#1230000
0*
#1235000
b1100010101111000 Z
b1000 1
b100 f
b1111100 9
1*
#1240000
0*
#1245000
b111 1
b1000101011110000 Z
b100 f
b1111101 9
1*
#1250000
0*
#1255000
b1010111100001 Z
b110 1
b100 f
b1111110 9
1*
#1260000
0*
#1265000
b101 1
b10101111000010 Z
b100 f
b1111111 9
1*
#1270000
0*
#1275000
b101011110000101 Z
b100 1
b100 f
b10000000 9
1*
#1280000
0*
#1285000
b11 1
b1010111100001010 Z
b100 f
b10000001 9
1*
#1290000
0*
#1295000
b101111000010101 Z
b10 1
b100 f
b10000010 9
1*
#1300000
0*
#1305000
b1 1
b1011110000101010 Z
b100 f
b10000011 9
1*
#1310000
0*
#1315000
b111100001010100 Z
b0 1
b100 f
b10000100 9
1*
#1320000
0*
#1325000
b1000000000000000000000000000000010000000000000000000000000000000100000000000000000000000000000001000000000000000000000000000000010000000000000000000000000000000100000000000000000000000000000001000000000000000000000000000000010000 5
b1000000000000000000000000000000010000000000000000000000000000000100000000000000000000000000000001000000000000000000000000000000010000000000000000000000000000000100000000000000000000000000000001000000000000000000000000000000010000 G
16
00
b1111000010101000 Z
b100 f
b10000101 9
1*
#1330000
0*
#1335000
0`
0W
b0 a
1X
0'
1%
b10000 &
b10000 T
b1110000101010001 Z
06
b100 f
b10000110 9
1*
#1340000
0*
#1345000
0%
b1100001010100010 Z
b100 f
b10101011 l
b0 k
1j
b10000111 9
b1110000 A
b10 =
b111000 m
1*
#1350000
0*
#1355000
b1000010101000101 Z
b10101011 /
b10101011 F
b0 -
b0 E
1,
1.
b100 f
b10001000 9
b10000111 >
1*
#1360000
0*
#1365000
b10101011 &
b10101011 T
1'
1%
b101010001010 Z
0.
b0 d
b10000000000000000000000000000000100000000000000000000000000000001000000000000000000000000000010101011 [
b11 e
1Y
b11 g
b100 h
b100 f
b10001001 9
1*
#1370000
0*
#1375000
0%
b1010100010100 Z
b100 f
b1100110111101111 l
b1000000010 i
b1 k
b10001010 9
b110 @
b11 :
b10 m
1*
#1380000
0*
#1385000
b10101000101000 Z
b1100110111101111 /
b1100110111101111 F
b1000000010 +
b1000000010 D
b1 -
b1 E
1.
b100 f
b10001011 9
b10001010 >
1*
#1390000
0*
#1395000
b1100110111101111 &
b1100110111101111 T
1%
b101010001010001 Z
0.
b10000000000000000000000000000000100000000000000000000000000000001000000000000000000001100110111101111 [
b11 g
b100 h
b11 e
1Y
b100 f
b10001100 9
1*
#1400000
0*
#1405000
0%
b1010100010100010 Z
b100 f
b10010001101000101011001111000 l
b1000000100 i
b10 k
b10001101 9
b1000 @
b100 :
1*
#1410000
0*
#1415000
b1 H
b101000101000100 Z
b10010001101000101011001111000 /
b10010001101000101011001111000 F
b1000000100 +
b1000000100 D
b10 -
b10 E
1.
b100 f
b10001110 9
b10001101 >
1*
#1420000
0*
#1425000
b10010001101000101011001111000 &
b10010001101000101011001111000 T
1%
b1010001010001001 Z
0.
b10000000000000000000000000000000100000001001000110100010101100111100000000000000000001100110111101111 [
b100 d
b11 g
b100 h
b11 e
1Y
b100 f
b10001111 9
1*
#1430000
0*
#1435000
0%
b100010100010010 Z
b100 f
b0 l
0j
b10010000 9
b1010 @
b101 :
1*
#1440000
0*
#1445000
b1000101000100101 Z
b0 /
b0 F
0,
1.
b100 f
b10010001 9
b10010000 >
1*
#1450000
0*
#1455000
1%
b1010001001011 Z
0.
b11 g
b100 h
b11 e
1Y
b100 f
b10010010 9
1*
#1460000
0*
#1465000
0%
b10100010010110 Z
b100 f
b0 i
b0 ?
b0 ;
b0 =
b10010011 9
b1100 @
b0 :
1*
#1470000
0*
#1475000
1X
b0 I
b0 K
b0 H
b101000100101101 Z
b0 +
b0 D
1.
b100 f
b10010100 9
b10010011 >
1*
#1480000
0*
#1485000
1`
1W
b1 a
1X
b1010001001011011 Z
0.
b1 g
b100 h
b0 e
0Y
b100 f
b10010101 9
1*
#1490000
0*
#1495000
b0 $
b0 ]
1"
b100010010110110 Z
b100 f
b10010110 9
1*
#1500000
0*
#1505000
b110010 1
b0 2
10
0"
b1000100101101101 Z
b100 f
b10010111 9
1*
#1510000
0*
#1515000
b1001011011011 Z
b110001 1
b100 f
b10011000 9
1*
#1520000
0*
#1525000
b110000 1
b10010110110111 Z
b100 f
b10011001 9
1*
#1530000
0*
#1535000
b100101101101110 Z
b101111 1
b100 f
b10011010 9
1*
#1540000
0*
#1545000
b101110 1
b1001011011011100 Z
b100 f
b10011011 9
1*
#1550000
0*
#1555000
b10110110111001 Z
b101101 1
b100 f
b10011100 9
1*
#1560000
0*
#1565000
b101100 1
b101101101110010 Z
b100 f
b10011101 9
1*
#1570000
0*
#1575000
b1011011011100101 Z
b101011 1
b100 f
b10011110 9
1*
#1580000
0*
#1585000
b101010 1
b110110111001010 Z
b100 f
b10011111 9
1*
#1590000
0*
#1595000
b1101101110010100 Z
b101001 1
b100 f
b10100000 9
1*
#1600000
0*
#1605000
b101000 1
b1011011100101000 Z
b100 f
b10100001 9
1*
#1610000
0*
#1615000
b110111001010000 Z
b100111 1
b100 f
b10100010 9
1*
#1620000
0*
#1625000
b100110 1
b1101110010100000 Z
b100 f
b10100011 9
1*
#1630000
0*
#1635000
b1011100101000001 Z
b100101 1
b100 f
b10100100 9
1*
#1640000
0*
#1645000
b100100 1
b111001010000011 Z
b100 f
b10100101 9
1*
#1650000
0*
#1655000
b1110010100000110 Z
b100011 1
b100 f
b10100110 9
1*
#1660000
0*
#1665000
b100010 1
b1100101000001101 Z
b100 f
b10100111 9
1*
#1670000
0*
#1675000
b1001010000011011 Z
b100001 1
b100 f
b10101000 9
1*
#1680000
0*
#1685000
b100000 1
b10100000110111 Z
b100 f
b10101001 9
1*
#1690000
0*
#1695000
b101000001101111 Z
b11111 1
b100 f
b10101010 9
1*
#1700000
0*
#1705000
b11110 1
b1010000011011111 Z
b100 f
b10101011 9
1*
#1710000
0*
#1715000
b100000110111110 Z
b11101 1
b100 f
b10101100 9
1*
#1720000
0*
#1725000
b11100 1
b1000001101111100 Z
b100 f
b10101101 9
1*
#1730000
0*
#1735000
b11011111001 Z
b11011 1
b100 f
b10101110 9
1*
#1740000
0*
#1745000
b11010 1
b110111110011 Z
b100 f
b10101111 9
1*
#1750000
0*
#1755000
b1101111100111 Z
b11001 1
b100 f
b10110000 9
1*
#1760000
0*
#1765000
b11000 1
b11011111001111 Z
b100 f
b10110001 9
1*
#1770000
0*
#1775000
b110111110011111 Z
b10111 1
b100 f
b10110010 9
1*
#1780000
0*
#1785000
b10110 1
b1101111100111110 Z
b100 f
b10110011 9
1*
#1790000
0*
#1795000
b1011111001111101 Z
b10101 1
b100 f
b10110100 9
1*
#1800000
0*
#1805000
b10100 1
b111110011111010 Z
b100 f
b10110101 9
1*
#1810000
0*
#1815000
b1111100111110101 Z
b10011 1
b100 f
b10110110 9
1*
#1820000
0*
#1825000
b10010 1
b1111001111101011 Z
b100 f
b10110111 9
1*
#1830000
0*
#1835000
b1110011111010111 Z
b10001 1
b100 f
b10111000 9
1*
#1840000
0*
#1845000
b10000 1
b1100111110101111 Z
b100 f
b10111001 9
1*
#1850000
0*
#1855000
b1001111101011110 Z
b1111 1
b100 f
b10111010 9
1*
#1860000
0*
#1865000
b1110 1
b11111010111101 Z
b100 f
b10111011 9
1*
#1870000
0*
#1875000
b111110101111011 Z
b1101 1
b100 f
b10111100 9
1*
#1880000
0*
#1885000
b1100 1
b1111101011110111 Z
b100 f
b10111101 9
1*
#1890000
0*
#1895000
b1111010111101111 Z
b1011 1
b100 f
b10111110 9
1*
#1900000
0*
#1905000
b1010 1
b1110101111011110 Z
b100 f
b10111111 9
1*
#1910000
0*
#1915000
b1101011110111100 Z
b1001 1
b100 f
b11000000 9
1*
#1920000
0*
#1925000
b1000 1
b1010111101111001 Z
b100 f
b11000001 9
1*
#1930000
0*
#1935000
b101111011110011 Z
b111 1
b100 f
b11000010 9
1*
#1940000
0*
#1945000
b110 1
b1011110111100110 Z
b100 f
b11000011 9
1*
#1950000
0*
#1955000
b111101111001100 Z
b101 1
b100 f
b11000100 9
1*
#1960000
0*
#1965000
b100 1
b1111011110011000 Z
b100 f
b11000101 9
1*
#1970000
0*
#1975000
b1110111100110000 Z
b11 1
b100 f
b11000110 9
1*
#1980000
0*
#1985000
b10 1
b1101111001100001 Z
b100 f
b11000111 9
1*
#1990000
0*
#1995000
b1011110011000011 Z
b1 1
b100 f
b11001000 9
1*
#2000000
0*
#2005000
b0 1
b111100110000110 Z
b100 f
b11001001 9
1*
#2010000
0*
#2015000
b1111001100001100 Z
b0 5
b0 G
16
00
b100 f
b11001010 9
1*
#2020000
0*
#2025000
0`
0W
b0 a
1X
06
0'
1%
b0 &
b0 T
b1110011000011001 Z
b100 f
b11001011 9
1*
#2030000
0*
#2035000
0%
b1100110000110011 Z
b100 f
b100000000 i
b100000000 ?
b1 ;
b11001100 9
b10101000 A
b1 =
b111000 m
1*
#2040000
0*
#2045000
1X
b1 I
b1000 K
b1001100001100110 Z
b100000000 +
b100000000 D
1.
b100 f
b11001101 9
b11001100 >
1*
#2050000
0*
#2055000
b1000 &
b1000 T
1'
1%
b11000011001100 Z
0.
b10 e
1Y
b11 g
b100 h
b100 f
b11001110 9
1*
#2060000
0*
#2065000
0%
b110000110011000 Z
b100 f
b1000000000 i
b1000000000 ?
b10 ;
b11001111 9
b1110 @
b1 :
b10 m
1*
#2070000
0*
#2075000
1X
b10 I
b10000 K
b1100001100110001 Z
b1000000000 +
b1000000000 D
1.
b100 f
b11010000 9
b11001111 >
1*
#2080000
0*
#2085000
b1100110111101111 &
b1100110111101111 T
1%
b1000011001100011 Z
0.
b11 g
b100 h
b11 e
1Y
b100 f
b11010001 9
1*
#2090000
0*
#2095000
0%
b110011000110 Z
b100 f
b1100000000 i
b1100000000 ?
b11 ;
b11010010 9
b10000 @
b10 :
1*
#2100000
0*
#2105000
1X
b11 I
b11000 K
b1100110001101 Z
b1100000000 +
b1100000000 D
1.
b100 f
b11010011 9
b11010010 >
1*
#2110000
0*
#2115000
1`
1W
b1 a
1X
b11001100011011 Z
0.
b1 g
b100 h
b0 e
0Y
b100 f
b11010100 9
1*
#2120000
0*
#2125000
b11000 $
b11000 ]
1"
b110011000110110 Z
b100 f
b11010101 9
1*
#2130000
0*
#2135000
0"
b1100110001101100 Z
b110010 1
b11000 2
10
b100 f
b11010110 9
1*
#2140000
0*
#2145000
b110001 1
b1001100011011000 Z
b100 f
b11010111 9
1*
#2150000
0*
#2155000
b11000110110000 Z
b110000 1
b100 f
b11011000 9
1*
#2160000
0*
#2165000
b101111 1
b110001101100000 Z
b100 f
b11011001 9
1*
#2170000
0*
#2175000
b1100011011000001 Z
b101110 1
b100 f
b11011010 9
1*
#2180000
0*
#2185000
b101101 1
b1000110110000010 Z
b100 f
b11011011 9
1*
#2190000
0*
#2195000
b1101100000100 Z
b101100 1
b100 f
b11011100 9
1*
#2200000
0*
#2205000
b101011 1
b11011000001001 Z
b100 f
b11011101 9
1*
#2210000
0*
#2215000
b110110000010011 Z
b101010 1
b100 f
b11011110 9
1*
#2220000
0*
#2225000
b101001 1
b1101100000100110 Z
b100 f
b11011111 9
1*
#2230000
0*
#2235000
b1011000001001100 Z
b101000 1
b100 f
b11100000 9
1*
#2240000
0*
#2245000
b100111 1
b110000010011001 Z
b100 f
b11100001 9
1*
#2250000
0*
#2255000
b1100000100110011 Z
b100110 1
b100 f
b11100010 9
1*
#2260000
0*
#2265000
b100101 1
b1000001001100111 Z
b100 f
b11100011 9
1*
#2270000
0*
#2275000
b10011001111 Z
b100100 1
b100 f
b11100100 9
1*
#2280000
0*
#2285000
b100011 1
b100110011111 Z
b100 f
b11100101 9
1*
#2290000
0*
#2295000
b1001100111110 Z
b100010 1
b100 f
b11100110 9
1*
#2300000
0*
#2305000
b100001 1
b10011001111101 Z
b100 f
b11100111 9
1*
#2310000
0*
#2315000
b100110011111010 Z
b100000 1
b100 f
b11101000 9
1*
#2320000
0*
#2325000
b11111 1
b1001100111110101 Z
b100 f
b11101001 9
1*
#2330000
0*
#2335000
b11001111101010 Z
b11110 1
b100 f
b11101010 9
1*
#2340000
0*
#2345000
b11101 1
b110011111010100 Z
b100 f
b11101011 9
1*
#2350000
0*
#2355000
b1100111110101000 Z
b11100 1
b100 f
b11101100 9
1*
#2360000
0*
#2365000
b11011 1
b1001111101010000 Z
b100 f
b11101101 9
1*
#2370000
0*
#2375000
b11111010100001 Z
b11010 1
b100 f
b11101110 9
1*
#2380000
0*
#2385000
b11001 1
b111110101000011 Z
b100 f
b11101111 9
1*
#2390000
0*
#2395000
b1111101010000111 Z
b11000 1
b100 f
b11110000 9
1*
#2400000
0*
#2405000
b10111 1
b1111010100001111 Z
b100 f
b11110001 9
1*
#2410000
0*
#2415000
b1110101000011110 Z
b10110 1
b100 f
b11110010 9
1*
#2420000
0*
#2425000
b10101 1
b1101010000111100 Z
b100 f
b11110011 9
1*
#2430000
0*
#2435000
b1010100001111001 Z
b10100 1
b100 f
b11110100 9
1*
#2440000
0*
#2445000
b10011 1
b101000011110010 Z
b100 f
b11110101 9
1*
#2450000
0*
#2455000
b1010000111100101 Z
b10010 1
b100 f
b11110110 9
1*
#2460000
0*
#2465000
b10001 1
b100001111001010 Z
b100 f
b11110111 9
1*
#2470000
0*
#2475000
b1000011110010100 Z
b10000 1
b100 f
b11111000 9
1*
#2480000
0*
#2485000
b1111 1
b111100101000 Z
b100 f
b11111001 9
1*
#2490000
0*
#2495000
b1111001010001 Z
b1110 1
b100 f
b11111010 9
1*
#2500000
0*
#2505000
b1101 1
b11110010100010 Z
b100 f
b11111011 9
1*
#2510000
0*
#2515000
b111100101000101 Z
b1100 1
b100 f
b11111100 9
1*
#2520000
0*
#2525000
b1011 1
b1111001010001010 Z
b100 f
b11111101 9
1*
#2530000
0*
#2535000
b1110010100010101 Z
b1010 1
b100 f
b11111110 9
1*
#2540000
0*
#2545000
b1001 1
b1100101000101011 Z
b100 f
b11111111 9
1*
#2550000
0*
#2555000
b1001010001010111 Z
b1000 1
b100 f
b100000000 9
1*
#2560000
0*
#2565000
b111 1
b10100010101111 Z
b100 f
b100000001 9
1*
#2570000
0*
#2575000
b101000101011111 Z
b110 1
b100 f
b100000010 9
1*
#2580000
0*
